{
  "project_info": {
    "project_number": "862268540700",
    "firebase_url": "https://sales1crm-d9fa0.firebaseio.com",
    "project_id": "sales1crm-d9fa0",
    "storage_bucket": "sales1crm-d9fa0.appspot.com"
  },
  "client": [
    {
      "client_info": {
        "mobilesdk_app_id": "1:862268540700:android:fb445e448637a54f",
        "android_client_info": {
          "package_name": "com.msf.project.sales1crm"
        }
      },
      "oauth_client": [
        {
          "client_id": "862268540700-00bfdn70g55hecebbrdn5g9cbu3orbd1.apps.googleusercontent.com",
          "client_type": 3
        }
      ],
      "api_key": [
        {
          "current_key": "AIzaSyAx69HLA_1216_XTcJCL9pFjJasphIq2SM"
        }
      ],
      "services": {
        "analytics_service": {
          "status": 1
        },
        "appinvite_service": {
          "status": 1,
          "other_platform_oauth_client": []
        },
        "ads_service": {
          "status": 2
        }
      }
    },
    {
      "client_info": {
        "mobilesdk_app_id": "1:862268540700:android:73d8f6b8a5c8b963",
        "android_client_info": {
          "package_name": "com.sales1crm.ekamant.sales1crm"
        }
      },
      "oauth_client": [
        {
          "client_id": "862268540700-00bfdn70g55hecebbrdn5g9cbu3orbd1.apps.googleusercontent.com",
          "client_type": 3
        }
      ],
      "api_key": [
        {
          "current_key": "AIzaSyAx69HLA_1216_XTcJCL9pFjJasphIq2SM"
        }
      ],
      "services": {
        "analytics_service": {
          "status": 1
        },
        "appinvite_service": {
          "status": 1,
          "other_platform_oauth_client": []
        },
        "ads_service": {
          "status": 2
        }
      }
    },
    {
      "client_info": {
        "mobilesdk_app_id": "1:862268540700:android:fb54553c7d134dae",
        "android_client_info": {
          "package_name": "indo.msf.activity"
        }
      },
      "oauth_client": [
        {
          "client_id": "862268540700-00bfdn70g55hecebbrdn5g9cbu3orbd1.apps.googleusercontent.com",
          "client_type": 3
        }
      ],
      "api_key": [
        {
          "current_key": "AIzaSyAx69HLA_1216_XTcJCL9pFjJasphIq2SM"
        }
      ],
      "services": {
        "analytics_service": {
          "status": 1
        },
        "appinvite_service": {
          "status": 1,
          "other_platform_oauth_client": []
        },
        "ads_service": {
          "status": 2
        }
      }
    }
  ],
  "configuration_version": "1"
}